-- Merging decision tree log ---
manifest
ADDED from F:\2016_Working\2017\12_month\4_Xap_language\Xap Shopping_git\Xap_android\library_listview\src\main\AndroidManifest.xml:1:1-10:12
INJECTED from F:\2016_Working\2017\12_month\4_Xap_language\Xap Shopping_git\Xap_android\library_listview\src\main\AndroidManifest.xml:1:1-10:12
INJECTED from F:\2016_Working\2017\12_month\4_Xap_language\Xap Shopping_git\Xap_android\library_listview\src\main\AndroidManifest.xml:1:1-10:12
INJECTED from F:\2016_Working\2017\12_month\4_Xap_language\Xap Shopping_git\Xap_android\library_listview\src\main\AndroidManifest.xml:1:1-10:12
INJECTED from F:\2016_Working\2017\12_month\4_Xap_language\Xap Shopping_git\Xap_android\library_listview\src\main\AndroidManifest.xml:1:1-10:12
INJECTED from F:\2016_Working\2017\12_month\4_Xap_language\Xap Shopping_git\Xap_android\library_listview\src\main\AndroidManifest.xml:1:1-10:12
INJECTED from F:\2016_Working\2017\12_month\4_Xap_language\Xap Shopping_git\Xap_android\library_listview\src\main\AndroidManifest.xml:1:1-10:12
	package
		ADDED from F:\2016_Working\2017\12_month\4_Xap_language\Xap Shopping_git\Xap_android\library_listview\src\main\AndroidManifest.xml:2:5-36
		INJECTED from F:\2016_Working\2017\12_month\4_Xap_language\Xap Shopping_git\Xap_android\library_listview\src\main\AndroidManifest.xml
		INJECTED from F:\2016_Working\2017\12_month\4_Xap_language\Xap Shopping_git\Xap_android\library_listview\src\main\AndroidManifest.xml
	android:versionName
		ADDED from F:\2016_Working\2017\12_month\4_Xap_language\Xap Shopping_git\Xap_android\library_listview\src\main\AndroidManifest.xml:4:5-32
		INJECTED from F:\2016_Working\2017\12_month\4_Xap_language\Xap Shopping_git\Xap_android\library_listview\src\main\AndroidManifest.xml
		INJECTED from F:\2016_Working\2017\12_month\4_Xap_language\Xap Shopping_git\Xap_android\library_listview\src\main\AndroidManifest.xml
	xmlns:android
		ADDED from F:\2016_Working\2017\12_month\4_Xap_language\Xap Shopping_git\Xap_android\library_listview\src\main\AndroidManifest.xml:1:11-69
	android:versionCode
		ADDED from F:\2016_Working\2017\12_month\4_Xap_language\Xap Shopping_git\Xap_android\library_listview\src\main\AndroidManifest.xml:3:5-28
		INJECTED from F:\2016_Working\2017\12_month\4_Xap_language\Xap Shopping_git\Xap_android\library_listview\src\main\AndroidManifest.xml
		INJECTED from F:\2016_Working\2017\12_month\4_Xap_language\Xap Shopping_git\Xap_android\library_listview\src\main\AndroidManifest.xml
uses-sdk
ADDED from F:\2016_Working\2017\12_month\4_Xap_language\Xap Shopping_git\Xap_android\library_listview\src\main\AndroidManifest.xml:6:5-43
INJECTED from F:\2016_Working\2017\12_month\4_Xap_language\Xap Shopping_git\Xap_android\library_listview\src\main\AndroidManifest.xml:6:5-43
INJECTED from F:\2016_Working\2017\12_month\4_Xap_language\Xap Shopping_git\Xap_android\library_listview\src\main\AndroidManifest.xml:6:5-43
	android:minSdkVersion
		ADDED from F:\2016_Working\2017\12_month\4_Xap_language\Xap Shopping_git\Xap_android\library_listview\src\main\AndroidManifest.xml:6:15-41
		INJECTED from F:\2016_Working\2017\12_month\4_Xap_language\Xap Shopping_git\Xap_android\library_listview\src\main\AndroidManifest.xml
		INJECTED from F:\2016_Working\2017\12_month\4_Xap_language\Xap Shopping_git\Xap_android\library_listview\src\main\AndroidManifest.xml
application
ADDED from F:\2016_Working\2017\12_month\4_Xap_language\Xap Shopping_git\Xap_android\library_listview\src\main\AndroidManifest.xml:8:5-20
